{
    "$schema": "http://json-schema.org/schema",
    "LDAPBased": "1",
    "LDAPbindDN": "null:null",
    "LDAPFilters": {
        "LDAPFilterByCountry":[
            "IN", "PK"
        ],
        "LDAPFilterByLeadWord":[
            "scam", "spam", "TechSupportScam"
        ]
    },
    "readOnly": true
}