{
    "doc.printable": true,
    "doc.offset": "discopaco-xml",
    "doc.numberOfCopies": 1,
    "doc.printerPresets": false,
    "doc.pagesRange": "All|From|Current",
    "printDialog.programSpecificSettings": {
        "Content": {
            "Content.pageBackground": false,
            "Content.images": true,
            "Content.HiddenText": true,
            "Content.TextPlaceholders": false,
            "Content.formControls": true,
            "Color": {
                "Color.printTextInBlock": true
            },
            "Pages": {
                "Pages.printBlankPages": true,
                "Pages.usePaperTrayOnly": false,
                "Pages.printRange": {
                    "printRange.all": 1,
                    "printRange.Specific": "Specific",
                    "printRange.Even": "Even",
                    "printRange.Odd": "Odd"
                }
            }
        },
        "pss.printAsBrochure": false
    },
    "printDialog.Layout": {
        "Layout.pagesPerSheet": 1,
        "Layout.Direction": {
            "Direction.Horizontal": "Horizontal",
            "Direction.Vertical": "Vertical"
        },
        "Layout.Border":{
            "Border.None": "None",
            "Border.singleHairLine": "Single Hairline",
            "Border.doubleHiarline": "Double Hairline"
        },
        "Layout.printButtonVisible": true
    }
}